******************************************************************************
*                          BEAM SETTINGS                                     *
******************************************************************************
*
* ..+....1....+....2....+....3....+....4....+....5....+....6....+....7..
*
*============================================================================*
*                        common to all cases                                 *
*============================================================================*
*
*
* maximum momentum per nucleon (3000 for 3.5Z TeV, 6000 for 6.37Z TeV)
BEAM           8000.                                                  HEAVYION
HI-PROPE         82.      208.                                                
*
BEAMPOS                                                               
*
* Only asking for loss map and touches map as in Sixtrack
* ..+....1....+....2....+....3....+....4....+....5....+....6....+....7..
*SOURCE                                         87.       88.        1.                      
*SOURCE           89.       90.       91.        0.       -1.       10.&
*SOURCE           0.0       0.0      97.0       1.0      96.0       1.0&&
* example for beam-beam interactions -----------------------------------
SOURCE            1.       52.      50.2      5.83                         
SOURCE           89.       90.       91.                 92.       10.&
* ..+....1....+....2....+....3....+....4....+....5....+....6....+....7..
USRICALL                                                              BBEAMCOL
USRICALL    0.600119  0.000141  0.005447 -0.027062    1.3e-6          BBCOL_H
USRICALL    0.599985   6.85e-5 -0.011574 -0.010753    1.3e-6          BBCOL_V
USRICALL   1.9492E-8  7.336E-8 -3.866E-8   -1.4E-4                    BBCOL_O
USRICALL     1.1E-04                                                  BBCOL_L
* end of example for beam-beam interactions ----------------------------

