 # ID name  angle[rad]  betax[m]  betay[m] halfgap[m]  Material  Length[m]  sigx[m]  sigy[m] tilt1[rad] tilt2[rad] nsig
         4 TCTPH.4L2.B1    0.0000000000E+00   1.1776340257E+03   1.2649246787E+03   6.6895526019E-03 Iner   1.00000E+00   7.43284E-04   7.70339E-04   0.00000E+00   0.00000E+00   9.00000E+00
         5 TCTPV.4L2.B1    1.5707963268E+00   1.2429177830E+03   1.2857038925E+03   6.9897618615E-03 Iner   1.00000E+00   7.63608E-04   7.76640E-04   0.00000E+00   0.00000E+00   9.00000E+00
        10 TCP.6L3.B1      0.0000000000E+00   1.3158104002E+02   1.4483837085E+02   3.7268104740E-03 C    6.00000E-01   2.48454E-04   2.60670E-04   0.00000E+00   0.00000E+00   1.50000E+01
        11 TCSG.5L3.B1     0.0000000000E+00   5.4687667142E+01   2.9906335843E+02   2.8831457322E-03 C    1.00000E+00   1.60175E-04   3.74568E-04   0.00000E+00   0.00000E+00   1.80000E+01
        12 TCSG.4R3.B1     0.0000000000E+00   2.6179031180E+01   3.9530324169E+02   1.9947968844E-03 C    1.00000E+00   1.10822E-04   4.30640E-04   0.00000E+00   0.00000E+00   1.80000E+01
        13 TCSG.A5R3.B1    2.9810200000E+00   3.5867973962E+01   3.4416334340E+02   2.5787260550E-03 C    1.00000E+00   1.29719E-04   4.01820E-04   0.00000E+00   0.00000E+00   1.80000E+01
        14 TCSG.B5R3.B1    1.9896753473E-01   4.5560186182E+01   3.1270294600E+02   2.9174565967E-03 C    1.00000E+00   1.46198E-04   3.83015E-04   0.00000E+00   0.00000E+00   1.80000E+01
        15 TCLA.A5R3.B1    1.5707963268E+00   1.4274153021E+02   1.7593751234E+02   5.7459072334E-03 Iner   1.00000E+00   2.58776E-04   2.87295E-04   0.00000E+00   0.00000E+00   2.00000E+01
        16 TCLA.B5R3.B1    0.0000000000E+00   1.5184377954E+02   1.6860710823E+02   5.3379916393E-03 Iner   1.00000E+00   2.66900E-04   2.81247E-04   0.00000E+00   0.00000E+00   2.00000E+01
        17 TCLA.6R3.B1     0.0000000000E+00   1.2965003132E+02   1.6840930174E+02   4.9324841641E-03 Iner   1.00000E+00   2.46624E-04   2.81082E-04   0.00000E+00   0.00000E+00   2.00000E+01
        18 TCLA.7R3.B1     0.0000000000E+00   6.7176423748E+01   8.9974447369E+01   3.5504861795E-03 Iner   1.00000E+00   1.77524E-04   2.05451E-04   0.00000E+00   0.00000E+00   2.00000E+01
        19 TCTPH.4L5.B1    0.0000000000E+00   1.1244016467E+03   7.4081624052E+02   6.5366109459E-03 CuCD   1.00000E+00   7.26290E-04   5.89528E-04   0.00000E+00   0.00000E+00   9.00000E+00
        20 TCTPV.4L5.B1    1.5707963268E+00   1.1410708831E+03   7.8635734791E+02   5.4664058821E-03 CuCD   1.00000E+00   7.31654E-04   6.07378E-04   0.00000E+00   0.00000E+00   9.00000E+00
        24 TCDQA.A4R6.B1   0.0000000000E+00   4.8935785454E+02   1.5351249964E+02   3.5456379931E-03 C    3.00000E+00   4.79140E-04   2.68362E-04   0.00000E+00   0.00000E+00   7.40000E+00
        25 TCDQA.C4R6.B1   0.0000000000E+00   5.0042164248E+02   1.5725862770E+02   3.5854952598E-03 C    3.00000E+00   4.84526E-04   2.71617E-04   0.00000E+00   0.00000E+00   7.40000E+00
        26 TCDQA.B4R6.B1   0.0000000000E+00   5.1166004004E+02   1.6121215672E+02   3.6255329870E-03 C    3.00000E+00   4.89937E-04   2.75010E-04   0.00000E+00   0.00000E+00   7.40000E+00
        27 TCSP.A4R6.B1    0.0000000000E+00   5.2424017387E+02   1.6580662269E+02   3.6698326497E-03 C    1.00000E+00   4.95923E-04   2.78901E-04   0.00000E+00   0.00000E+00   7.40000E+00
        28 TCP.D6L7.B1     1.5707963268E+00   1.4830312335E+02   7.1607448969E+01   9.1642830907E-04 MoGR   6.00000E-01   2.63769E-04   1.83286E-04   0.00000E+00   0.00000E+00   5.00000E+00
        29 TCP.C6L7.B1     0.0000000000E+00   1.4081183858E+02   7.5564669390E+01   1.2851060845E-03 MoGR   6.00000E-01   2.57021E-04   1.88282E-04   0.00000E+00   0.00000E+00   5.00000E+00
        30 TCP.B6L7.B1     2.2150000000E+00   1.3357005632E+02   7.9737087984E+01   1.0783827223E-03 C    6.00000E-01   2.50325E-04   1.93410E-04   0.00000E+00   0.00000E+00   5.00000E+00
        31 TCSG.A6L7.B1    2.4626600000E+00   4.1675481094E+01   2.0621434871E+02   1.4533103831E-03 MoGR   1.00000E+00   1.39827E-04   3.11035E-04   0.00000E+00   0.00000E+00   6.50000E+00
        33 TCSG.B5L7.B1    2.5045500000E+00   1.6009335638E+02   1.6673737568E+02   1.7943811701E-03 MoGR   1.00000E+00   2.74054E-04   2.79683E-04   0.00000E+00   0.00000E+00   6.50000E+00
        34 TCSG.A5L7.B1    7.1035000000E-01   1.8607837683E+02   1.4611660061E+02   1.8306936356E-03 MoGR   1.00000E+00   2.95459E-04   2.61818E-04   0.00000E+00   0.00000E+00   6.50000E+00
        35 TCSG.D4L7.B1    1.5707963268E+00   3.3306518730E+02   6.8902671449E+01   1.1686400824E-03 MoGR   1.00000E+00   3.95288E-04   1.79791E-04   0.00000E+00   0.00000E+00   6.50000E+00
        37 TCSG.B4L7.B1    0.0000000000E+00   1.3972711860E+02   1.3075871826E+02   1.6641907327E-03 MoGR   1.00000E+00   2.56029E-04   2.47676E-04   0.00000E+00   0.00000E+00   6.50000E+00
        38 TCSG.A4L7.B1    2.3492100000E+00   1.2863578175E+02   1.4104103993E+02   1.6353437117E-03 C    1.00000E+00   2.45658E-04   2.57230E-04   0.00000E+00   0.00000E+00   6.50000E+00
        39 TCSG.A4R7.B1    8.0809000000E-01   1.1824178168E+02   1.5194817354E+02   1.6409973263E-03 MoGR   1.00000E+00   2.35524E-04   2.66991E-04   0.00000E+00   0.00000E+00   6.50000E+00
        40 TCSG.B5R7.B1    2.4696400000E+00   1.2186015452E+02   2.6725302476E+02   1.8794074983E-03 MoGR   1.00000E+00   2.39100E-04   3.54088E-04   0.00000E+00   0.00000E+00   6.50000E+00
        41 TCSG.D5R7.B1    8.9710000000E-01   2.1393655929E+02   1.5839388973E+02   1.8889221615E-03 MoGR   1.00000E+00   3.16805E-04   2.72595E-04   0.00000E+00   0.00000E+00   6.50000E+00
        42 TCSG.E5R7.B1    2.2776500000E+00   2.4147436913E+02   1.3599219491E+02   1.8913853530E-03 MoGR   1.00000E+00   3.36577E-04   2.52584E-04   0.00000E+00   0.00000E+00   6.50000E+00
        43 TCSG.6R7.B1     8.7300000000E-03   3.0410627273E+02   5.3083333527E+01   2.4550581096E-03 MoGR   1.00000E+00   3.77713E-04   1.57808E-04   0.00000E+00   0.00000E+00   6.50000E+00
        44 TCLA.A6R7.B1    1.5707963268E+00   2.6787963031E+02   5.4008798649E+01   1.5917748900E-03 Iner   1.00000E+00   3.54502E-04   1.59177E-04   0.00000E+00   0.00000E+00   1.00000E+01
        45 TCLA.B6R7.B1    0.0000000000E+00   1.4063780230E+02   8.0118955577E+01   2.5686233522E-03 Iner   1.00000E+00   2.56862E-04   1.93873E-04   0.00000E+00   0.00000E+00   1.00000E+01
        46 TCLA.C6R7.B1    1.5707963268E+00   6.0084766068E+01   1.4845505301E+02   2.6390455314E-03 Iner   1.00000E+00   1.67893E-04   2.63905E-04   0.00000E+00   0.00000E+00   1.00000E+01
        47 TCLA.D6R7.B1    0.0000000000E+00   5.7111797485E+01   1.5389196532E+02   1.6368629001E-03 Iner   1.00000E+00   1.63686E-04   2.68694E-04   0.00000E+00   0.00000E+00   1.00000E+01
        48 TCLA.A7R7.B1    0.0000000000E+00   5.9492871420E+01   1.4027576464E+02   1.6706360793E-03 Iner   1.00000E+00   1.67064E-04   2.56532E-04   0.00000E+00   0.00000E+00   1.00000E+01
        49 TCTPH.4L8.B1    0.0000000000E+00   4.6194053007E+02   5.6410256485E+02   6.9828656156E-03 Iner   1.00000E+00   4.65524E-04   5.14433E-04   0.00000E+00   0.00000E+00   1.50000E+01
        50 TCTPV.4L8.B1    1.5707963268E+00   4.8358752657E+02   5.6794181383E+02   7.7427024909E-03 Iner   1.00000E+00   4.76307E-04   5.16180E-04   0.00000E+00   0.00000E+00   1.50000E+01
        51 TCTPH.4L1.B1    0.0000000000E+00   1.1231151223E+03   7.4250807696E+02   6.5328703270E-03 CuCD   1.00000E+00   7.25874E-04   5.90201E-04   0.00000E+00   0.00000E+00   9.00000E+00
        52 TCTPV.4L1.B1    1.5707963268E+00   1.1397643502E+03   7.8816542639E+02   5.4726867517E-03 CuCD   1.00000E+00   7.31235E-04   6.08076E-04   0.00000E+00   0.00000E+00   9.00000E+00
        53 IP2             0.0000000000E+00   4.9987059132E-01   5.0085408716E-01   0.0000000000E+00 None   0.00000E+00   1.53136E-05   1.53287E-05   0.00000E+00   0.00000E+00   0.00000E+00
