SYNC
       35640  0.000349     0.000 0.  26658.883200  938.272088  1
      1.        1.
NEXT
BEAM
  2.2000e+11           3.5           3.5  0.0000e+00  1.1960e-04  1  0
NEXT
TUNE
QF     62.304929627416804
QD     60.317700615118049
NEXT
CHRO
SXF      2.234267180290113
SXD      2.126115235658223
NEXT
