# Database for cleaning insertion collimators
52
#
TCL.4R1.B1
tcl.4r1.b1
   999.0
Iner
1.0000000000000000
0.0000000000000000
0.0000000000000000
  581.2954290000000000
 1639.9792900000000000
#
TCL.5R1.B1
tcl.5r1.b1
   999.0
CU
1.0000000000000000
0.0000000000000000
0.0000000000000000
  166.5785570000000000
 1105.0100280000000000
#
TCL.6R1.B1
tcl.6r1.b1
   999.0
Iner
1.0000000000000000
0.0000000000000000
0.0000000000000000
  166.5785570000000000
 1105.0100280000000000
#
TCTPH.4L2.B1
tctph.4l2.b1
    9.0
Iner
1.0000000000000000
0.0000000000000000
0.0000000000000000
   50.7488260000000000
   49.8785960000000000
#
TCTPV.4L2.B1
tctpv.4l2.b1
    9.0
Iner
1.0000000000000000
1.5710000000000000
0.0000000000000000
  132.7830670000000000
   57.6560560000000000
#
TDI.4L2.B1
tdi.4l2.b1
  999.0
CU
4.0000000000000000
1.5710000000000000
0.0000000000000000
  112.9530130000000000
   49.8114940000000000
#
TCLIA.4R2
tclia.4r2
  999.0
C
1.0000000000000000
1.5710000000000000
0.0000000000000000
   54.9648910000000000
  126.4188290000000000
#
TCLIB.6R2.B1
tclib.6r2.b1
  999.0
C
1.0000000000000000
1.5710000000000000
0.0000000000000000
  271.2557050000000000
   30.9463610000000000
#
TCLD.A11R2.B1
tcld.a11r2.b1
  999.0
Iner
0.6000000000000000
0.0000000000000000
0.0000000000000000
   42.73923451701442
  141.83512354629778
#
TCP.6L3.B1
tcp.6l3.b1
   15.0
C
0.6000000000000000
0.0000000000000000
0.0000000000000000
  131.8681680000000000
  144.2811640000000000
#
TCSG.5L3.B1
tcsg.5l3.b1
   18.0
C
1.0000000000000000
0.0000000000000000
0.0000000000000000
   54.7337800000000000
  298.0994900000000000
#
TCSG.4R3.B1
tcsg.4r3.b1
   18.0
C
1.0000000000000000
0.0000000000000000
0.0000000000000000
   26.1986130000000000
  396.7542520000000000
#
TCSG.A5R3.B1
tcsg.a5r3.b1
   18.0
C
1.0000000000000000
2.9810200000000000
0.0000000000000000
   35.9443160000000000
  345.3306670000000000
#
TCSG.B5R3.B1
tcsg.b5r3.b1
   18.0
C
1.0000000000000000
0.1989675347277354
0.0000000000000000
   45.6580260000000000
  313.7826170000000000
#
TCLA.A5R3.B1
tcla.a5r3.b1
   20.0
Iner
1.0000000000000000
1.5710000000000000
0.0000000000000000
  142.9360950000000000
  176.5996000000000000
#
TCLA.B5R3.B1
tcla.b5r3.b1
   20.0
Iner
1.0000000000000000
0.0000000000000000
0.0000000000000000
  152.0437600000000000
  169.2442300000000000
#
TCLA.6R3.B1
tcla.6r3.b1
   20.0
Iner
1.0000000000000000
0.0000000000000000
0.0000000000000000
  129.6336150000000000
  168.3625560000000000
#
TCLA.7R3.B1
tcla.7r3.b1
   20.0
Iner
1.0000000000000000
0.0000000000000000
0.0000000000000000
   66.2314350000000000
   95.6418720000000100
#
TCTPH.4L5.B1
tctph.4l5.b1
    9.0
CuCD
1.0000000000000000
0.0000000000000000
0.0000000000000000
 1646.6431280000000000
  624.4517630000000000
#
TCTPV.4L5.B1
tctpv.4l5.b1
    9.0
CuCD
1.0000000000000000
1.5710000000000000
0.0000000000000000
 1651.7470330000000000
  658.2966680000000000
#
TCL.4R5.B1
tcl.4r5.b1
   999.0
Iner
1.0000000000000000
0.0000000000000000
0.0000000000000000
  581.2916820000000000
 1639.9569810000000000
#
TCL.5R5.B1
tcl.5r5.b1
   999.0
CU
1.0000000000000000
0.0000000000000000
0.0000000000000000
  167.1147430000000000
 1107.7172800000000000
#
TCL.6R5.B1
tcl.6r5.b1
   999.0
Iner
1.0000000000000000
0.0000000000000000
0.0000000000000000
  167.1147430000000000
 1107.7172800000000000
#
TCDQA.A4R6.B1
tcdqa.a4r6.b1
    7.4
C
3.0000000000000000
0.0000000000000000
0.0000000000000000
  478.6481040000000000
  158.8615300000000000
#
TCDQA.C4R6.B1
tcdqa.c4r6.b1
    7.4
C
3.0000000000000000
0.0000000000000000
0.0000000000000000
  489.4516830000000000
  161.8629610000000000
#
TCDQA.B4R6.B1
tcdqa.b4r6.b1
    7.4
C
3.0000000000000000
0.0000000000000000
0.0000000000000000
  489.4516830000000000
  161.8629610000000000
#
TCSP.A4R6.B1
tcsp.a4r6.b1
    7.4
C
1.0000000000000000
0.0000000000000000
0.0000000000000000
  501.5506270000000000
  165.3831920000000000
#
TCP.D6L7.B1
tcp.d6l7.b1
    5.0
MoGR
0.6000000000000000
1.5707963270000000
0.0000000000000000
  162.1339780000000000
   76.6590750000000000
#
TCP.C6L7.B1
tcp.c6l7.b1
    5.0
MoGR
0.6000000000000000
0.0000000000000000
0.0000000000000000
  153.6886350000000000
   81.0954310000000000
#
TCP.B6L7.B1
tcp.b6l7.b1
    5.0
C
0.6000000000000000
2.2150000000000000
0.0000000000000000
  145.5198490000000000
   85.7580500000000000
#
TCSG.A6L7.B1
tcsg.a6l7.b1
    6.5
MoGR
1.0000000000000000
2.4626600000000000
0.0000000000000000
   40.8616150000000000
  224.1821190000000000
#
TCPCV.A6L7.B1
tcpcv.a6l7.b1
999.0
Si
1
0.000000
0.000000
201.3699039
134.9784869
#
TCSG.B5L7.B1
tcsg.b5l7.b1
    6.5
MoGR
1.0000000000000000
2.5045500000000000
0.0000000000000000
  155.7432780000000000
  165.9839540000000000
#
TCSG.A5L7.B1
tcsg.a5l7.b1
    6.5
MoGR
1.0000000000000000
0.7103500000000000
0.0000000000000000
  181.0199480000000000
  145.6266320000000000
#
TCSG.D4L7.B1
tcsg.d4l7.b1
    6.5
MoGR
1.0000000000000000
1.5708000000000000
0.0000000000000000
  324.1695800000000000
   69.3726490000000000
#
TCPCH.A4L7.B1
tcpch.a4l7.b1
999.0
Si
1
0.000000
0.000000
201.3699039
134.9784869
#
TCSG.B4L7.B1
tcsg.b4l7.b1
    6.5
MoGR
1.0000000000000000
0.0000000000000000
0.0000000000000000
  136.9817230000000000
  133.1558570000000000
#
TCSG.A4L7.B1
tcsg.a4l7.b1
    6.5
C
1.0000000000000000
2.3492100000000000
0.0000000000000000
  126.2577790000000000
  143.5023070000000000
#
TCSG.A4R7.B1
tcsg.a4r7.b1
    6.5
MoGR
1.0000000000000000
0.8080900000000000
0.0000000000000000
  116.2142740000000000
  154.4673720000000000
#
TCSG.B5R7.B1
tcsg.b5r7.b1
    6.5
MoGR
1.0000000000000000
2.4696400000000000
0.0000000000000000
  124.6963880000000000
  267.9792370000000000
#
TCSG.D5R7.B1
tcsg.d5r7.b1
    6.5
MoGR
1.0000000000000000
0.8971000000000000
0.0000000000000000
  218.1844730000000000
  158.2536880000000000
#
TCSG.E5R7.B1
tcsg.e5r7.b1
    6.5
MoGR
1.0000000000000000
2.2776500000000000
0.0000000000000000
  246.1023660000000000
  135.7005690000000000
#
TCSG.6R7.B1
tcsg.6r7.b1
    6.5
MoGR
1.0000000000000000
0.0087300000000000
0.0000000000000000
  340.8221600000000000
   46.4190500000000000
#
TCLA.A6R7.B1
tcla.a6r7.b1
   10.0
Iner
1.0000000000000000
1.5710000000000000
0.0000000000000000
  301.2434040000000000
   47.1276760000000000
#
TCLA.B6R7.B1
tcla.b6r7.b1
   10.0
Iner
1.0000000000000000
0.0000000000000000
0.0000000000000000
  160.6114850000000000
   75.4754710000000000
#
TCLA.C6R7.B1
tcla.c6r7.b1
   10.0
Iner
1.0000000000000000
1.5710000000000000
0.0000000000000000
   67.3940520000000000
  152.8781840000000000
#
TCLA.D6R7.B1
tcla.d6r7.b1
   10.0
Iner
1.0000000000000000
0.0000000000000000
0.0000000000000000
   63.7998170000000000
  159.0218800000000000
#
TCLA.A7R7.B1
tcla.a7r7.b1
   10.0
Iner
1.0000000000000000
0.0000000000000000
0.0000000000000000
   61.8334450000000000
  150.7963550000000000
#
TCTPH.4L8.B1
tctph.4l8.b1
    15.0
Iner
1.0000000000000000
0.0000000000000000
0.0000000000000000
   47.2047910000000000
   48.0367530000000000
#
TCTPV.4L8.B1
tctpv.4l8.b1
    15.0
Iner
1.0000000000000000
1.5710000000000000
0.0000000000000000
  129.1671420000000000
   52.7528110000000000
#
TCTPH.4L1.B1
tctph.4l1.b1
    9.0
CuCD
1.0000000000000000
0.0000000000000000
0.0000000000000000
 1646.6543210000000000
  624.4605280000000000
#
TCTPV.4L1.B1
tctpv.4l1.b1
    9.0
CuCD
1.0000000000000000
1.5710000000000000
0.0000000000000000
 1651.7582950000000000
  658.3059390000000000
