******************************************************************************
*                          BEAM SETTINGS                                     *
******************************************************************************
*
* ..+....1....+....2....+....3....+....4....+....5....+....6....+....7..
*
*============================================================================*
*                        common to all cases                                 *
*============================================================================*
*
*
* maximum momentum per nucleon (3000 for 3.5Z TeV, 6000 for 6.37Z TeV)
BEAM           8000.                                                  HEAVYION
HI-PROPE         82.      208.                                                
*
BEAMPOS                                                               
*
* Only asking for loss map and touches map as in Sixtrack
* ..+....1....+....2....+....3....+....4....+....5....+....6....+....7..
*SOURCE                                         87.       88.        1.                      
*SOURCE           89.       90.       91.        0.       -1.       10.&
*SOURCE           0.0       0.0      97.0       1.0      96.0       1.0&&
* example for beam-beam interactions -----------------------------------
SOURCE            1.       50.      50.2      5.83                         
SOURCE           89.       90.       91.                 92.       10.&
* ..+....1....+....2....+....3....+....4....+....5....+....6....+....7..
USRICALL                                                  82       208BBEAMCOL
USRICALL    0.502971  0.001256  0.003486  0.013209    2.3e-6          BBCOL_H
USRICALL    0.503646 -0.007333 -0.004401  0.024357    2.3e-6          BBCOL_V
USRICALL       1e-06     1e-06    -0.002     6e-05                    BBCOL_O
USRICALL    1.06E-04                                                  BBCOL_L
* end of example for beam-beam interactions ----------------------------

