******************************************************************************
*                          BEAM SETTINGS                                     *
******************************************************************************
*
* ..+....1....+....2....+....3....+....4....+....5....+....6....+....7..
*
*============================================================================*
*                        common to all cases                                 *
*============================================================================*
*
*
* maximum momentum per nucleon (3000 for 3.5Z TeV, 6000 for 6.37Z TeV)
BEAM           8000.                                                  PROTON
* HI-PROPE         82.      208.                                                
*
BEAMPOS                                                               
*
* Only asking for loss map and touches map as in Sixtrack
* ..+....1....+....2....+....3....+....4....+....5....+....6....+....7..
*SOURCE                                         87.       88.        1.                      
*SOURCE           89.       90.       91.        0.       -1.       10.&
*SOURCE           0.0       0.0      97.0       1.0      96.0       1.0&&
* example for beam-beam interactions -----------------------------------
SOURCE            1.       53.      50.2      5.83                         
SOURCE           89.       90.       91.                 92.       10.&
* ..+....1....+....2....+....3....+....4....+....5....+....6....+....7..
USRICALL                                                  82       208BBEAMCOL
USRICALL    0.500054  0.000416  0.011784 -0.000347    1.6e-6          BBCOL_H
USRICALL    0.499453  0.001603  0.012117 -0.026511    1.6e-6          BBCOL_V
USRICALL         0.0       0.0       0.0   0.00017                    BBCOL_O
USRICALL    1.06E-04                                                  BBCOL_L
* end of example for beam-beam interactions ----------------------------

