SYNC
       35640  0.000321     0.000 0.  26658.883200193687.150000  1
      1.        1.
NEXT
BEAM
  1.5000e+08       1.48961       1.48961  7.5000e-02  1.1370e-04  1  0
NEXT
TUNE
QF     64.310029327455283
QD     59.319589534302466
NEXT
CHRO
SXF      2.945358600972063
SXD      2.930962266203940
NEXT
