SYNC
       35640  0.000348     0.000 0.  26658.883200  938.272088  1
      1.        1.
NEXT
BEAM
  2.2000e+11           3.5           3.5  0.0000e+00  1.1840e-04  1  0
NEXT
TUNE
QF     62.310036398729686
QD     60.319586745399363
NEXT
CHRO
SXF      1.181407936359077
SXD      1.271171439403262
NEXT
