******************************************************************************
*                          BEAM SETTINGS                                     *
******************************************************************************
*
* ..+....1....+....2....+....3....+....4....+....5....+....6....+....7..
*
*============================================================================*
*                        common to all cases                                 *
*============================================================================*
*
*
BEAM           7100.                                                  PROTON
*
* A.Mereghetti, 2018-07-19
* please uncomment the following lines if you want to use ions and update
*   them according to the species you want to simulate
* ..+....1....+....2....+....3....+....4....+....5....+....6....+....7..
* BEAM         -2800.0                                                  HEAVYION
* HI-PROPE        82.0     208.0
*
BEAMPOS                                                               
*
* Only asking for loss map and touches map as in Sixtrack
*SOURCE                                                                
*SOURCE           89.       90.       91.                 92.       10.&
*SOURCE           0.0       0.0      97.0       1.0      96.0       1.0&&
*
*
* example for beam-beam interactions -----------------------------------
SOURCE            1.       50.      50.2      5.83                         
SOURCE           89.       90.       91.                 92.       10.&
* ..+....1....+....2....+....3....+....4....+....5....+....6....+....7..
USRICALL                                                              BBEAMCOL
USRICALL   10.001695  0.000228 -0.005853 -0.005157   1.9E-06          BBCOL_H
USRICALL   10.003189  0.001019 -0.073692  0.008028   1.9E-06          BBCOL_V
USRICALL       0.001       0.0    -0.002    0.0002                    BBCOL_O
USRICALL     1.1E-04                                                  BBCOL_L
* end of example for beam-beam interactions ----------------------------
*
*
* example for beam-target interactions ---------------------------------
* SOURCE                     50.      50.2      45.0                         
* SOURCE           89.       90.       91.                 92.       10.&
* ..+....1....+....2....+....3....+....4....+....5....+....6....+....7..
* USRICALL         3.0                                                  BTARGETC
* end of example for beam-target interactions --------------------------
