******************************************************************************
*                          BEAM SETTINGS                                     *
******************************************************************************
*
* ..+....1....+....2....+....3....+....4....+....5....+....6....+....7..
*
*============================================================================*
*                        common to all cases                                 *
*============================================================================*
*
*
* maximum momentum per nucleon (3000 for 3.5Z TeV, 6000 for 6.37Z TeV)
BEAM           8000.                                                  HEAVYION
HI-PROPE         82.      208.                                                
*
BEAMPOS                                                               
*
* Only asking for loss map and touches map as in Sixtrack
* ..+....1....+....2....+....3....+....4....+....5....+....6....+....7..
*SOURCE                                         87.       88.        1.                      
*SOURCE           89.       90.       91.        0.       -1.       10.&
*SOURCE           0.0       0.0      97.0       1.0      96.0       1.0&&
* example for beam-beam interactions -----------------------------------
SOURCE            1.       52.      50.2      5.83                         
SOURCE           89.       90.       91.                 92.       10.&
* ..+....1....+....2....+....3....+....4....+....5....+....6....+....7..
USRICALL                                                              BBEAMCOL
USRICALL    2.000700 -8.613e-5  0.029631 -0.005010    1.3e-6          BBCOL_H
USRICALL    2.000165 -0.000417 -0.030415  0.002101    1.3e-6          BBCOL_V
USRICALL  -4.2435E-8 3.5286E-7 -0.002000 6.2632e-5                    BBCOL_O
USRICALL     1.1E-04                                                  BBCOL_L
* end of example for beam-beam interactions ----------------------------

