# Database for cleaning insertion collimators
87
# 
TCL.4L1.B2     
tcl.4l1.b2     
  999.0
CU 
1.0000000000000000
0.0000000000000000
0.0000000000000000
   79.0006099999999947
  161.6032040000000052
# 
TCL.5L1.B2     
tcl.5l1.b2     
  999.0
CU 
1.0000000000000000
0.0000000000000000
0.0000000000000000
  144.0540689999999984
  131.9399319999999989
# 
TCL.6L1.B2     
tcl.6l1.b2     
  999.0
W  
1.0000000000000000
0.0000000000000000
0.0000000000000000
  102.0719079999999934
  157.0769070000000056
# 
TCTPH.4R8.B2   
tctph.4r8.b2   
   15.0
W  
1.0000000000000000
0.0000000000000000
0.0000000000000000
   46.8226089999999999
   48.3163669999999996
# 
TCTPV.4R8.B2   
tctpv.4r8.b2   
   15.0
W  
1.0000000000000000
1.5707963199999999
0.0000000000000000
   48.4065269999999970
   46.1866309999999984
# 
TDI.4R8.B2     
tdi.4r8.b2     
  999.0
C  
4.0000000000000000
1.5707963199999999
0.0000000000000000
  108.6240329999999972
   44.4735390000000024
# 
TCLIA.4L8      
tclia.4l8      
  999.0
C  
1.0000000000000000
1.5707963199999999
0.0000000000000000
   52.1980930000000001
  128.3882820000000038
# 
TCLIB.6L8.B2   
tclib.6l8.b2   
   999.0
C  
1.0000000000000000
1.5707963199999999
0.0000000000000000
  221.7736910000000137
   14.9255359999999992
# 
TCP.D6R7.B2    
tcp.d6r7.b2    
    5.0
C  
0.6000000000000000
1.5707963199999999
0.0000000000000000
  158.7855279999999993
   78.3036309999999958
# 
TCP.C6R7.B2    
tcp.c6r7.b2    
    5.0
C  
0.6000000000000000
0.0000000000000000
0.0000000000000000
  150.4438350000000071
   82.8068679999999944
# 
TCP.B6R7.B2    
tcp.b6r7.b2    
    5.0
C  
0.6000000000000000
2.2252947900000000
0.0000000000000000
  142.3789700000000096
   87.5353659999999962
# 
TCSG.A6R7.B2   
tcsg.a6r7.b2   
    6.5
C  
1.0000000000000000
2.4661502300000002
0.0000000000000000
   39.8281679999999980
  227.0549320000000080
# 
TCSG.B5R7.B2   
tcsg.b5r7.b2   
    6.5
C  
1.0000000000000000
2.5062928000000002
0.0000000000000000
  160.1728620000000092
  166.5946500000000015
# 
TCSG.A5R7.B2   
tcsg.a5r7.b2   
    6.5
C  
1.0000000000000000
0.7086036700000000
0.0000000000000000
  186.1815119999999979
  145.9981999999999971
# 
TCSG.D4R7.B2   
tcsg.d4r7.b2   
    6.5
C  
1.0000000000000000
1.5707963199999999
0.0000000000000000
  333.3151320000000055
   68.8790819999999968
# 
TCSG.B4R7.B2   
tcsg.b4r7.b2   
    6.5
C  
1.0000000000000000
0.0000000000000000
0.0000000000000000
  151.6992559999999912
  121.2490190000000041
# 
TCSG.A4R7.B2   
tcsg.a4r7.b2   
    6.5
C  
1.0000000000000000
2.3055799399999999
0.0000000000000000
  139.9006449999999973
  130.9176209999999969
# 
TCSG.A4L7.B2   
tcsg.a4l7.b2   
    6.5
C  
1.0000000000000000
0.7347836100000001
0.0000000000000000
   99.6790680000000009
  175.8410489999999982
# 
TCSG.B5L7.B2   
tcsg.b5l7.b2   
    6.5
C  
1.0000000000000000
2.4696408900000000
0.0000000000000000
  121.7226390000000009
  267.4587169999999787
# 
TCSG.D5L7.B2   
tcsg.d5l7.b2   
    6.5
C  
1.0000000000000000
0.8970992300000000
0.0000000000000000
  213.6687059999999860
  158.4910409999999956
# 
TCSG.E5L7.B2   
tcsg.e5l7.b2   
    6.5
C  
1.0000000000000000
2.2776546700000000
0.0000000000000000
  241.1679619999999886
  136.0676589999999919
# 
TCSG.6L7.B2    
tcsg.6l7.b2    
    6.5
C  
1.0000000000000000
0.0087266400000000
0.0000000000000000
  335.4705250000000092
   47.3668380000000013
# 
TCLA.A6L7.B2   
tcla.a6l7.b2   
   10.0
W  
1.0000000000000000
1.5707963199999999
0.0000000000000000
  296.8226070000000050
   48.1730140000000020
# 
TCLA.B6L7.B2   
tcla.b6l7.b2   
   10.0
W  
1.0000000000000000
0.0000000000000000
0.0000000000000000
  159.4043900000000065
   76.4326570000000061
# 
TCLA.C6L7.B2   
tcla.c6l7.b2   
   10.0
W  
1.0000000000000000
1.5707963199999999
0.0000000000000000
   68.6198669999999993
  151.9504520000000127
# 
TCLA.D6L7.B2   
tcla.d6l7.b2   
   10.0
W  
1.0000000000000000
0.0000000000000000
0.0000000000000000
   65.0560949999999991
  157.9799260000000061
# 
TCLA.A7L7.B2   
tcla.a7l7.b2   
   10.0
W  
1.0000000000000000
0.0000000000000000
0.0000000000000000
   65.9887130000000042
  143.1853020000000072
# 
TCDQA.A4L6.B2  
tcdqa.a4l6.b2  
    7.4
C  
3.0000000000000000
0.0000000000000000
0.0000000000000000
  488.5144389999999817
  161.7955819999999960
# 
TCDQA.C4L6.B2  
tcdqa.c4l6.b2  
    7.4
C  
3.0000000000000000
0.0000000000000000
0.0000000000000000
  499.5952419999999847
  165.3792039999999872
# 
TCDQA.B4L6.B2  
tcdqa.b4l6.b2  
    7.4
C  
3.0000000000000000
0.0000000000000000
0.0000000000000000
  510.8513310000000160
  169.1561839999999961
# 
TCSP.A4L6.B2   
tcsp.a4l6.b2   
    7.4
C  
1.0000000000000000
0.0000000000000000
0.0000000000000000
  523.4517339999999876
  173.5399449999999888
# 
TCTPH.4R5.B2   
tctph.4r5.b2   
   9.0
W  
1.0000000000000000
0.0000000000000000
0.0000000000000000
  157.7231659999999920
   78.7964869999999991
# 
TCTPV.4R5.B2   
tctpv.4r5.b2   
   9.0
W  
1.0000000000000000
1.5707963199999999
0.0000000000000000
  155.2802039999999977
   78.9599280000000050
# 
TCL.4L5.B2     
tcl.4l5.b2     
  999.0
CU 
1.0000000000000000
0.0000000000000000
0.0000000000000000
   79.0078529999999972
  161.5176960000000008
# 
TCL.5L5.B2     
tcl.5l5.b2     
  999.0
CU 
1.0000000000000000
0.0000000000000000
0.0000000000000000
  144.3440889999999968
  131.5562299999999993
# 
TCL.6L5.B2     
tcl.6l5.b2     
  999.0
W  
1.0000000000000000
0.0000000000000000
0.0000000000000000
   94.9485530000000040
  163.9574580000000026
# 
TCP.6R3.B2     
tcp.6r3.b2     
   15.0
C  
0.6000000000000000
0.0000000000000000
0.0000000000000000
  131.2352769999999964
  144.6070520000000101
# 
TCSG.5R3.B2    
tcsg.5r3.b2    
   18.0
C  
1.0000000000000000
0.0000000000000000
0.0000000000000000
   54.5304369999999992
  298.4487819999999942
# 
TCSG.4L3.B2    
tcsg.4l3.b2    
   18.0
C  
1.0000000000000000
0.0000000000000000
0.0000000000000000
   26.1778919999999999
  395.3718109999999797
# 
TCSG.A5L3.B2   
tcsg.a5l3.b2   
   18.0
C  
1.0000000000000000
2.9810223599999999
0.0000000000000000
   35.7914710000000014
  344.2724129999999718
# 
TCSG.B5L3.B2   
tcsg.b5l3.b2   
   18.0
C  
1.0000000000000000
0.1884955500000000
0.0000000000000000
   45.4391529999999975
  312.8280330000000049
# 
TCLA.A5L3.B2   
tcla.a5l3.b2   
   20.0
W  
1.0000000000000000
1.5707963199999999
0.0000000000000000
  142.3259510000000034
  176.1114200000000096
# 
TCLA.B5L3.B2   
tcla.b5l3.b2   
   20.0
W  
1.0000000000000000
0.0000000000000000
0.0000000000000000
  151.4052719999999965
  168.7821610000000021
# 
TCLA.6L3.B2    
tcla.6l3.b2    
   20.0
W  
1.0000000000000000
0.0000000000000000
0.0000000000000000
  129.4387670000000128
  168.7207799999999907
# 
TCLA.7L3.B2    
tcla.7l3.b2    
   20.0
W  
1.0000000000000000
0.0000000000000000
0.0000000000000000
   66.8093010000000049
   93.2026510000000030
# 
TCTPH.4R2.B2   
tctph.4r2.b2   
   11.0
W  
1.0000000000000000
0.0000000000000000
0.0000000000000000
   46.6912340000000015
   48.6477050000000020
# 
TCTPV.4R2.B2   
tctpv.4r2.b2   
   9.0
W  
1.0000000000000000
1.5707963199999999
0.0000000000000000
   48.2665530000000018
   46.4849279999999965
# 
TCTPH.4R1.B2   
tctph.4r1.b2   
   9.0
W  
1.0000000000000000
0.0000000000000000
0.0000000000000000
  157.6519769999999880
   78.7753359999999958
# 
TCTPV.4R1.B2   
tctpv.4r1.b2   
   9.0
W  
1.0000000000000000
1.5707963199999999
0.0000000000000000
  155.2047530000000108
   78.9414560000000023
