SYNC
           0  0.000348     0.000 0.  26658.883200  938.272088  1
      1.        1.
NEXT
BEAM
  2.2000e+11           3.5           3.5  0.0000e+00  1.1410e-04  1  0
NEXT
TUNE
QF     62.306918337774611
QD     60.316771391244529
NEXT
CHRO
SXF      0.395391493383186
SXD      0.848448646929615
NEXT
