SYNC
           0  0.000348     0.000 0.  26658.883200  938.272088  1
      1.        1.
NEXT
BEAM
  2.2000e+11           3.5           3.5  0.0000e+00  1.1410e-04  1  0
NEXT
TUNE
QF     62.310135075096035
QD     60.319447060442094
NEXT
CHRO
SXF      0.277018549216568
SXD      0.152593239595626
NEXT
