SYNC
           0  0.000349     0.000 0.  26658.883200  938.272088  1
      1.        1.
NEXT
BEAM
  2.2000e+11           3.5           3.5  0.0000e+00  1.1410e-04  1  0
NEXT
TUNE
QF     62.305185201019398
QD     60.317166964645622
NEXT
CHRO
SXF      0.234786411239302
SXD      0.346535865826034
NEXT
