SYNC
       35640  0.000348     0.000 0.  26658.883200  938.272088  1
      1.        1.
NEXT
BEAM
  2.2000e+11           3.5           3.5  0.0000e+00  1.1960e-04  1  0
NEXT
TUNE
QF     62.306692567282852
QD     60.319051776713060
NEXT
CHRO
SXF      2.241084558521706
SXD      2.457418584903102
NEXT
