SYNC
       35640  0.000321     0.000 0.  26658.883200  938.272088  1
      1.        1.
NEXT
BEAM
  3.0000e+10          3.75          3.75  7.5000e-02  1.1370e-04  1  0
NEXT
TUNE
QF     64.310029327455283
QD     59.319589534302089
NEXT
CHRO
SXF      2.945358603960781
SXD      2.930962270071121
NEXT
