******************************************************************************
*                          BEAM SETTINGS                                     *
******************************************************************************
*
* ..+....1....+....2....+....3....+....4....+....5....+....6....+....7..
*
*============================================================================*
*                        common to all cases                                 *
*============================================================================*
*
*
* maximum momentum per nucleon (3000 for 3.5Z TeV, 6000 for 6.37Z TeV)
BEAM           8000.                                                  HEAVYION
HI-PROPE         82.      208.                                                
*
BEAMPOS                                                               
*
* Only asking for loss map and touches map as in Sixtrack
* ..+....1....+....2....+....3....+....4....+....5....+....6....+....7..
*SOURCE                                         87.       88.        1.                      
*SOURCE           89.       90.       91.        0.       -1.       10.&
*SOURCE           0.0       0.0      97.0       1.0      96.0       1.0&&
* example for beam-beam interactions -----------------------------------
SOURCE            1.       53.      50.2      5.83                         
SOURCE           89.       90.       91.                 92.       10.&
* ..+....1....+....2....+....3....+....4....+....5....+....6....+....7..
USRICALL                                                  82       208BBEAMCOL
USRICALL    1.477635 -0.016771 -0.003754  0.001194    1.6e-6          BBCOL_H
USRICALL     1.48685 -0.001257 -0.027239  0.012925    1.6e-6          BBCOL_V
USRICALL      1.1E-5  0.000299       0.0    -2e-06                    BBCOL_O
USRICALL    1.06E-04                                                  BBCOL_L
* end of example for beam-beam interactions ----------------------------

